/*
WARNING: Do NOT edit the input and output ports in this file in a text
editor if you plan to continue editing the block that represents it in
the Block Editor! File corruption is VERY likely to occur.
*/
/*
Copyright (C) 1991-2012 Altera Corporation
Your use of Altera Corporation's design tools, logic functions 
and other software and tools, and its AMPP partner logic 
functions, and any output files from any of the foregoing 
(including device programming or simulation files), and any 
associated documentation or information are expressly subject 
to the terms and conditions of the Altera Program License 
Subscription Agreement, Altera MegaCore Function License 
Agreement, or other applicable license agreement, including, 
without limitation, that your use is for the sole purpose of 
programming logic devices manufactured by Altera and sold by 
Altera or its authorized distributors.  Please refer to the 
applicable agreement for further details.
*/
(header "graphic" (version "1.4"))
(pin
	(input)
	(rect 608 432 800 448)
	(text "INPUT" (rect 157 0 185 10)(font "Arial" (font_size 6)))
	(text "PLD_CLOCKINPUT" (rect 5 0 102 11)(font "Arial" ))
	(pt 192 8)
	(drawing
		(line (pt 116 12)(pt 141 12))
		(line (pt 116 4)(pt 141 4))
		(line (pt 145 8)(pt 192 8))
		(line (pt 116 12)(pt 116 4))
		(line (pt 141 4)(pt 145 8))
		(line (pt 141 12)(pt 145 8))
	)
	(text "VCC" (rect 160 7 180 17)(font "Arial" (font_size 6)))
	(annotation_block (location)(rect 696 400 744 416))
)
(pin
	(output)
	(rect 608 512 784 528)
	(text "OUTPUT" (rect 137 0 175 10)(font "Arial" (font_size 6)))
	(text "LEDG[7..0]" (rect 31 0 86 11)(font "Arial" ))
	(pt 176 8)
	(drawing
		(line (pt 176 8)(pt 124 8))
		(line (pt 124 4)(pt 98 4))
		(line (pt 124 12)(pt 98 12))
		(line (pt 124 12)(pt 124 4))
		(line (pt 98 4)(pt 94 8))
		(line (pt 94 8)(pt 98 12))
		(line (pt 98 12)(pt 94 8))
	)
	(flipy)
	(annotation_block (location)(rect 456 384 520 496))
)
(pin
	(output)
	(rect 760 648 936 664)
	(text "OUTPUT" (rect 137 6 175 16)(font "Arial" (font_size 6)))
	(text "SRAM_WE_N" (rect 5 5 73 16)(font "Arial" ))
	(pt 176 8)
	(drawing
		(line (pt 176 8)(pt 124 8))
		(line (pt 124 12)(pt 98 12))
		(line (pt 124 4)(pt 98 4))
		(line (pt 124 4)(pt 124 12))
		(line (pt 98 12)(pt 94 8))
		(line (pt 94 8)(pt 98 4))
		(line (pt 98 4)(pt 94 8))
	)
	(rotate180)
	(annotation_block (location)(rect 456 648 520 664))
)
(pin
	(output)
	(rect 544 568 736 584)
	(text "OUTPUT" (rect 153 0 191 10)(font "Arial" (font_size 6)))
	(text "SRAM_ADDR[17..0]" (rect 5 0 105 11)(font "Arial" ))
	(pt 192 8)
	(drawing
		(line (pt 192 8)(pt 140 8))
		(line (pt 140 4)(pt 114 4))
		(line (pt 140 12)(pt 114 12))
		(line (pt 140 12)(pt 140 4))
		(line (pt 114 4)(pt 110 8))
		(line (pt 110 8)(pt 114 12))
		(line (pt 114 12)(pt 110 8))
	)
	(flipy)
	(annotation_block (location)(rect 416 536 480 552))
)
(pin
	(output)
	(rect 760 584 936 600)
	(text "OUTPUT" (rect 137 0 175 10)(font "Arial" (font_size 6)))
	(text "SRAM_LB_N" (rect 5 0 68 11)(font "Arial" ))
	(pt 176 8)
	(drawing
		(line (pt 176 8)(pt 124 8))
		(line (pt 124 4)(pt 98 4))
		(line (pt 124 12)(pt 98 12))
		(line (pt 124 12)(pt 124 4))
		(line (pt 98 4)(pt 94 8))
		(line (pt 94 8)(pt 98 12))
		(line (pt 98 12)(pt 94 8))
	)
	(flipy)
	(annotation_block (location)(rect 368 592 424 608))
)
(pin
	(output)
	(rect 760 616 936 632)
	(text "OUTPUT" (rect 137 0 175 10)(font "Arial" (font_size 6)))
	(text "SRAM_CE_N" (rect 5 0 71 11)(font "Arial" ))
	(pt 176 8)
	(drawing
		(line (pt 176 8)(pt 124 8))
		(line (pt 124 4)(pt 98 4))
		(line (pt 124 12)(pt 98 12))
		(line (pt 124 12)(pt 124 4))
		(line (pt 98 4)(pt 94 8))
		(line (pt 94 8)(pt 98 12))
		(line (pt 98 12)(pt 94 8))
	)
	(flipy)
	(annotation_block (location)(rect 496 616 560 632))
)
(pin
	(output)
	(rect 560 632 736 648)
	(text "OUTPUT" (rect 137 0 175 10)(font "Arial" (font_size 6)))
	(text "SRAM_OE_N" (rect 5 0 71 11)(font "Arial" ))
	(pt 176 8)
	(drawing
		(line (pt 176 8)(pt 124 8))
		(line (pt 124 4)(pt 98 4))
		(line (pt 124 12)(pt 98 12))
		(line (pt 124 12)(pt 124 4))
		(line (pt 98 4)(pt 94 8))
		(line (pt 94 8)(pt 98 12))
		(line (pt 98 12)(pt 94 8))
	)
	(flipy)
	(annotation_block (location)(rect 384 640 440 656))
)
(pin
	(output)
	(rect 560 600 736 616)
	(text "OUTPUT" (rect 137 0 175 10)(font "Arial" (font_size 6)))
	(text "SRAM_UB_N" (rect 5 0 71 11)(font "Arial" ))
	(pt 176 8)
	(drawing
		(line (pt 176 8)(pt 124 8))
		(line (pt 124 4)(pt 98 4))
		(line (pt 124 12)(pt 98 12))
		(line (pt 124 12)(pt 124 4))
		(line (pt 98 4)(pt 94 8))
		(line (pt 94 8)(pt 98 12))
		(line (pt 98 12)(pt 94 8))
	)
	(flipy)
	(annotation_block (location)(rect 432 600 488 616))
)
(pin
	(output)
	(rect 760 816 936 832)
	(text "OUTPUT" (rect 137 0 175 10)(font "Arial" (font_size 6)))
	(text "DRAM_WE_N" (rect 5 0 75 11)(font "Arial" ))
	(pt 176 8)
	(drawing
		(line (pt 176 8)(pt 124 8))
		(line (pt 124 4)(pt 98 4))
		(line (pt 124 12)(pt 98 12))
		(line (pt 124 12)(pt 124 4))
		(line (pt 98 4)(pt 94 8))
		(line (pt 94 8)(pt 98 12))
		(line (pt 98 12)(pt 94 8))
	)
	(flipy)
	(annotation_block (location)(rect 936 832 992 848))
)
(pin
	(output)
	(rect 504 800 680 816)
	(text "OUTPUT" (rect 137 0 175 10)(font "Arial" (font_size 6)))
	(text "DRAM_RAS_N" (rect 5 0 80 11)(font "Arial" ))
	(pt 176 8)
	(drawing
		(line (pt 176 8)(pt 124 8))
		(line (pt 124 4)(pt 98 4))
		(line (pt 124 12)(pt 98 12))
		(line (pt 124 12)(pt 124 4))
		(line (pt 98 4)(pt 94 8))
		(line (pt 94 8)(pt 98 12))
		(line (pt 98 12)(pt 94 8))
	)
	(flipy)
	(annotation_block (location)(rect 680 816 736 832))
)
(pin
	(output)
	(rect 760 752 936 768)
	(text "OUTPUT" (rect 137 0 175 10)(font "Arial" (font_size 6)))
	(text "DRAM_CS_N" (rect 5 0 73 11)(font "Arial" ))
	(pt 176 8)
	(drawing
		(line (pt 176 8)(pt 124 8))
		(line (pt 124 4)(pt 98 4))
		(line (pt 124 12)(pt 98 12))
		(line (pt 124 12)(pt 124 4))
		(line (pt 98 4)(pt 94 8))
		(line (pt 94 8)(pt 98 12))
		(line (pt 98 12)(pt 94 8))
	)
	(flipy)
	(annotation_block (location)(rect 936 768 992 784))
)
(pin
	(output)
	(rect 576 736 752 752)
	(text "OUTPUT" (rect 137 0 175 10)(font "Arial" (font_size 6)))
	(text "DRAM_CKE" (rect 5 0 66 11)(font "Arial" ))
	(pt 176 8)
	(drawing
		(line (pt 176 8)(pt 124 8))
		(line (pt 124 4)(pt 98 4))
		(line (pt 124 12)(pt 98 12))
		(line (pt 124 12)(pt 124 4))
		(line (pt 98 4)(pt 94 8))
		(line (pt 94 8)(pt 98 12))
		(line (pt 98 12)(pt 94 8))
	)
	(flipy)
	(annotation_block (location)(rect 752 752 808 768))
)
(pin
	(output)
	(rect 760 720 936 736)
	(text "OUTPUT" (rect 137 0 175 10)(font "Arial" (font_size 6)))
	(text "DRAM_CAS_N" (rect 5 0 80 11)(font "Arial" ))
	(pt 176 8)
	(drawing
		(line (pt 176 8)(pt 124 8))
		(line (pt 124 4)(pt 98 4))
		(line (pt 124 12)(pt 98 12))
		(line (pt 124 12)(pt 124 4))
		(line (pt 98 4)(pt 94 8))
		(line (pt 94 8)(pt 98 12))
		(line (pt 98 12)(pt 94 8))
	)
	(flipy)
	(annotation_block (location)(rect 936 736 992 752))
)
(pin
	(output)
	(rect 520 704 744 720)
	(text "OUTPUT" (rect 185 0 223 10)(font "Arial" (font_size 6)))
	(text "DRAM_BA_1,DRAM_BA_0" (rect 5 0 136 11)(font "Arial" ))
	(pt 224 8)
	(drawing
		(line (pt 224 8)(pt 172 8))
		(line (pt 172 4)(pt 146 4))
		(line (pt 172 12)(pt 146 12))
		(line (pt 172 12)(pt 172 4))
		(line (pt 146 4)(pt 142 8))
		(line (pt 142 8)(pt 146 12))
		(line (pt 146 12)(pt 142 8))
	)
	(flipy)
	(annotation_block (location)(rect 744 720 800 736))
)
(pin
	(output)
	(rect 696 784 936 800)
	(text "OUTPUT" (rect 201 0 239 10)(font "Arial" (font_size 6)))
	(text "DRAM_UDQM,DRAM_LDQM" (rect 5 0 148 11)(font "Arial" ))
	(pt 240 8)
	(drawing
		(line (pt 240 8)(pt 188 8))
		(line (pt 188 4)(pt 162 4))
		(line (pt 188 12)(pt 162 12))
		(line (pt 188 12)(pt 188 4))
		(line (pt 162 4)(pt 158 8))
		(line (pt 158 8)(pt 162 12))
		(line (pt 162 12)(pt 158 8))
	)
	(flipy)
	(annotation_block (location)(rect 936 800 992 816))
)
(pin
	(output)
	(rect 1496 432 1672 448)
	(text "OUTPUT" (rect 1 0 39 10)(font "Arial" (font_size 6)))
	(text "DRAM_CLK" (rect 90 0 149 11)(font "Arial" ))
	(pt 0 8)
	(drawing
		(line (pt 0 8)(pt 52 8))
		(line (pt 52 4)(pt 78 4))
		(line (pt 52 12)(pt 78 12))
		(line (pt 52 12)(pt 52 4))
		(line (pt 78 4)(pt 82 8))
		(line (pt 82 8)(pt 78 12))
		(line (pt 78 12)(pt 82 8))
	)
	(annotation_block (location)(rect 1672 448 1728 464))
)
(pin
	(output)
	(rect 736 688 936 704)
	(text "OUTPUT" (rect 161 0 199 10)(font "Arial" (font_size 6)))
	(text "DRAM_ADDR[11..0]" (rect 5 0 107 11)(font "Arial" ))
	(pt 200 8)
	(drawing
		(line (pt 200 8)(pt 148 8))
		(line (pt 148 4)(pt 122 4))
		(line (pt 148 12)(pt 122 12))
		(line (pt 148 12)(pt 148 4))
		(line (pt 122 4)(pt 118 8))
		(line (pt 118 8)(pt 122 12))
		(line (pt 122 12)(pt 118 8))
	)
	(flipy)
)
(pin
	(bidir)
	(rect 752 552 928 568)
	(text "BIDIR" (rect 151 0 175 10)(font "Arial" (font_size 6)))
	(text "SRAM_DQ[15..0]" (rect 5 0 89 11)(font "Arial" ))
	(pt 176 8)
	(drawing
		(line (pt 120 4)(pt 98 4))
		(line (pt 176 8)(pt 124 8))
		(line (pt 120 12)(pt 98 12))
		(line (pt 98 4)(pt 94 8))
		(line (pt 98 12)(pt 94 8))
		(line (pt 120 4)(pt 124 8))
		(line (pt 124 8)(pt 120 12))
	)
	(flipy)
	(text "VCC" (rect 152 7 172 17)(font "Arial" (font_size 6)))
	(annotation_block (location)(rect 512 528 576 544))
)
(pin
	(bidir)
	(rect 496 768 680 784)
	(text "BIDIR" (rect 159 0 183 10)(font "Arial" (font_size 6)))
	(text "DRAM_DQ[15..0]" (rect 5 0 92 11)(font "Arial" ))
	(pt 184 8)
	(drawing
		(line (pt 128 4)(pt 106 4))
		(line (pt 184 8)(pt 132 8))
		(line (pt 128 12)(pt 106 12))
		(line (pt 106 4)(pt 102 8))
		(line (pt 106 12)(pt 102 8))
		(line (pt 128 4)(pt 132 8))
		(line (pt 132 8)(pt 128 12))
	)
	(flipy)
	(text "VCC" (rect 160 7 180 17)(font "Arial" (font_size 6)))
	(annotation_block (location)(rect 680 784 736 800))
)
(symbol
	(rect 560 448 592 464)
	(text "VCC" (rect 7 0 27 10)(font "Arial" (font_size 6)))
	(text "inst2" (rect 3 5 26 16)(font "Arial" )(invisible))
	(port
		(pt 16 16)
		(output)
		(text "1" (rect 19 7 24 18)(font "Courier New" (bold))(invisible))
		(text "1" (rect 19 7 24 18)(font "Courier New" (bold))(invisible))
		(line (pt 16 16)(pt 16 8))
	)
	(drawing
		(line (pt 8 8)(pt 24 8))
	)
)
(symbol
	(rect 952 368 1464 856)
	(text "first_nios2_system" (rect 200 -1 328 15)(font "Arial" (font_size 10)))
	(text "inst" (rect 8 472 25 483)(font "Arial" ))
	(port
		(pt 0 72)
		(input)
		(text "clk_clk" (rect 0 0 37 13)(font "Arial" (font_size 8)))
		(text "clk_clk" (rect 4 61 41 74)(font "Arial" (font_size 8)))
		(line (pt 0 72)(pt 224 72))
	)
	(port
		(pt 0 112)
		(input)
		(text "reset_reset_n" (rect 0 0 80 13)(font "Arial" (font_size 8)))
		(text "reset_reset_n" (rect 4 101 84 114)(font "Arial" (font_size 8)))
		(line (pt 0 112)(pt 224 112))
	)
	(port
		(pt 0 152)
		(output)
		(text "led_pio_external_connection_export[7..0]" (rect 0 0 234 13)(font "Arial" (font_size 8)))
		(text "led_pio_external_connection_export[7..0]" (rect 4 141 238 154)(font "Arial" (font_size 8)))
		(line (pt 0 152)(pt 224 152)(line_width 3))
	)
	(port
		(pt 0 208)
		(output)
		(text "sram_0_external_interface_ADDR[17..0]" (rect 0 0 230 13)(font "Arial" (font_size 8)))
		(text "sram_0_external_interface_ADDR[17..0]" (rect 4 197 234 210)(font "Arial" (font_size 8)))
		(line (pt 0 208)(pt 224 208)(line_width 3))
	)
	(port
		(pt 0 224)
		(output)
		(text "sram_0_external_interface_LB_N" (rect 0 0 191 13)(font "Arial" (font_size 8)))
		(text "sram_0_external_interface_LB_N" (rect 4 213 195 226)(font "Arial" (font_size 8)))
		(line (pt 0 224)(pt 224 224))
	)
	(port
		(pt 0 240)
		(output)
		(text "sram_0_external_interface_UB_N" (rect 0 0 192 13)(font "Arial" (font_size 8)))
		(text "sram_0_external_interface_UB_N" (rect 4 229 196 242)(font "Arial" (font_size 8)))
		(line (pt 0 240)(pt 224 240))
	)
	(port
		(pt 0 256)
		(output)
		(text "sram_0_external_interface_CE_N" (rect 0 0 191 13)(font "Arial" (font_size 8)))
		(text "sram_0_external_interface_CE_N" (rect 4 245 195 258)(font "Arial" (font_size 8)))
		(line (pt 0 256)(pt 224 256))
	)
	(port
		(pt 0 272)
		(output)
		(text "sram_0_external_interface_OE_N" (rect 0 0 192 13)(font "Arial" (font_size 8)))
		(text "sram_0_external_interface_OE_N" (rect 4 261 196 274)(font "Arial" (font_size 8)))
		(line (pt 0 272)(pt 224 272))
	)
	(port
		(pt 0 288)
		(output)
		(text "sram_0_external_interface_WE_N" (rect 0 0 194 13)(font "Arial" (font_size 8)))
		(text "sram_0_external_interface_WE_N" (rect 4 277 198 290)(font "Arial" (font_size 8)))
		(line (pt 0 288)(pt 224 288))
	)
	(port
		(pt 0 328)
		(output)
		(text "sdram_wire_addr[11..0]" (rect 0 0 136 13)(font "Arial" (font_size 8)))
		(text "sdram_wire_addr[11..0]" (rect 4 317 140 330)(font "Arial" (font_size 8)))
		(line (pt 0 328)(pt 224 328)(line_width 3))
	)
	(port
		(pt 0 344)
		(output)
		(text "sdram_wire_ba[1..0]" (rect 0 0 118 13)(font "Arial" (font_size 8)))
		(text "sdram_wire_ba[1..0]" (rect 4 333 122 346)(font "Arial" (font_size 8)))
		(line (pt 0 344)(pt 224 344)(line_width 3))
	)
	(port
		(pt 0 360)
		(output)
		(text "sdram_wire_cas_n" (rect 0 0 110 13)(font "Arial" (font_size 8)))
		(text "sdram_wire_cas_n" (rect 4 349 114 362)(font "Arial" (font_size 8)))
		(line (pt 0 360)(pt 224 360))
	)
	(port
		(pt 0 376)
		(output)
		(text "sdram_wire_cke" (rect 0 0 95 13)(font "Arial" (font_size 8)))
		(text "sdram_wire_cke" (rect 4 365 99 378)(font "Arial" (font_size 8)))
		(line (pt 0 376)(pt 224 376))
	)
	(port
		(pt 0 392)
		(output)
		(text "sdram_wire_cs_n" (rect 0 0 103 13)(font "Arial" (font_size 8)))
		(text "sdram_wire_cs_n" (rect 4 381 107 394)(font "Arial" (font_size 8)))
		(line (pt 0 392)(pt 224 392))
	)
	(port
		(pt 0 424)
		(output)
		(text "sdram_wire_dqm[1..0]" (rect 0 0 127 13)(font "Arial" (font_size 8)))
		(text "sdram_wire_dqm[1..0]" (rect 4 413 131 426)(font "Arial" (font_size 8)))
		(line (pt 0 424)(pt 224 424)(line_width 3))
	)
	(port
		(pt 0 440)
		(output)
		(text "sdram_wire_ras_n" (rect 0 0 108 13)(font "Arial" (font_size 8)))
		(text "sdram_wire_ras_n" (rect 4 429 112 442)(font "Arial" (font_size 8)))
		(line (pt 0 440)(pt 224 440))
	)
	(port
		(pt 0 456)
		(output)
		(text "sdram_wire_we_n" (rect 0 0 108 13)(font "Arial" (font_size 8)))
		(text "sdram_wire_we_n" (rect 4 445 112 458)(font "Arial" (font_size 8)))
		(line (pt 0 456)(pt 224 456))
	)
	(port
		(pt 512 72)
		(output)
		(text "up_clocks_0_sdram_clk_clk" (rect 0 0 159 13)(font "Arial" (font_size 8)))
		(text "up_clocks_0_sdram_clk_clk" (rect 370 61 529 74)(font "Arial" (font_size 8)))
		(line (pt 512 72)(pt 288 72))
	)
	(port
		(pt 0 192)
		(bidir)
		(text "sram_0_external_interface_DQ[15..0]" (rect 0 0 213 13)(font "Arial" (font_size 8)))
		(text "sram_0_external_interface_DQ[15..0]" (rect 4 181 217 194)(font "Arial" (font_size 8)))
		(line (pt 0 192)(pt 224 192)(line_width 3))
	)
	(port
		(pt 0 408)
		(bidir)
		(text "sdram_wire_dq[15..0]" (rect 0 0 125 13)(font "Arial" (font_size 8)))
		(text "sdram_wire_dq[15..0]" (rect 4 397 129 410)(font "Arial" (font_size 8)))
		(line (pt 0 408)(pt 224 408)(line_width 3))
	)
	(drawing
		(text "clk" (rect 209 43 226 57)(font "Arial" (color 128 0 0)(font_size 9)))
		(text "clk" (rect 229 67 243 78)(font "Arial" (color 0 0 0)))
		(text "reset" (rect 195 83 228 97)(font "Arial" (color 128 0 0)(font_size 9)))
		(text "reset_n" (rect 229 107 265 118)(font "Arial" (color 0 0 0)))
		(text "led_pio_external_connection" (rect 60 123 246 137)(font "Arial" (color 128 0 0)(font_size 9)))
		(text "export" (rect 229 147 259 158)(font "Arial" (color 0 0 0)))
		(text "sram_0_external_interface" (rect 67 163 240 177)(font "Arial" (color 128 0 0)(font_size 9)))
		(text "DQ" (rect 229 187 245 198)(font "Arial" (color 0 0 0)))
		(text "ADDR" (rect 229 203 260 214)(font "Arial" (color 0 0 0)))
		(text "LB_N" (rect 229 219 256 230)(font "Arial" (color 0 0 0)))
		(text "UB_N" (rect 229 235 258 246)(font "Arial" (color 0 0 0)))
		(text "CE_N" (rect 229 251 258 262)(font "Arial" (color 0 0 0)))
		(text "OE_N" (rect 229 267 258 278)(font "Arial" (color 0 0 0)))
		(text "WE_N" (rect 229 283 260 294)(font "Arial" (color 0 0 0)))
		(text "sdram_wire" (rect 155 299 232 313)(font "Arial" (color 128 0 0)(font_size 9)))
		(text "addr" (rect 229 323 250 334)(font "Arial" (color 0 0 0)))
		(text "ba" (rect 229 339 240 350)(font "Arial" (color 0 0 0)))
		(text "cas_n" (rect 229 355 258 366)(font "Arial" (color 0 0 0)))
		(text "cke" (rect 229 371 246 382)(font "Arial" (color 0 0 0)))
		(text "cs_n" (rect 229 387 252 398)(font "Arial" (color 0 0 0)))
		(text "dq" (rect 229 403 240 414)(font "Arial" (color 0 0 0)))
		(text "dqm" (rect 229 419 250 430)(font "Arial" (color 0 0 0)))
		(text "ras_n" (rect 229 435 256 446)(font "Arial" (color 0 0 0)))
		(text "we_n" (rect 229 451 253 462)(font "Arial" (color 0 0 0)))
		(text "up_clocks_0_sdram_clk" (rect 289 43 448 57)(font "Arial" (color 128 0 0)(font_size 9)))
		(text "clk" (rect 273 67 287 78)(font "Arial" (color 0 0 0)))
		(text " first_nios2_system " (rect 425 472 527 483)(font "Arial" ))
		(line (pt 225 52)(pt 225 76))
		(line (pt 226 52)(pt 226 76))
		(line (pt 225 92)(pt 225 116))
		(line (pt 226 92)(pt 226 116))
		(line (pt 225 132)(pt 225 156))
		(line (pt 226 132)(pt 226 156))
		(line (pt 225 172)(pt 225 292))
		(line (pt 226 172)(pt 226 292))
		(line (pt 225 308)(pt 225 460))
		(line (pt 226 308)(pt 226 460))
		(line (pt 287 52)(pt 287 76))
		(line (pt 286 52)(pt 286 76))
		(line (pt 224 32)(pt 288 32))
		(line (pt 288 32)(pt 288 472))
		(line (pt 224 472)(pt 288 472))
		(line (pt 224 32)(pt 224 472))
		(line (pt 0 0)(pt 512 0))
		(line (pt 512 0)(pt 512 488))
		(line (pt 0 488)(pt 512 488))
		(line (pt 0 0)(pt 0 488))
	)
)
(connector
	(pt 576 472)
	(pt 576 464)
)
(connector
	(pt 888 472)
	(pt 576 472)
)
(connector
	(pt 888 472)
	(pt 888 480)
)
(connector
	(pt 888 480)
	(pt 952 480)
)
(connector
	(pt 952 560)
	(pt 928 560)
	(bus)
)
(connector
	(pt 928 592)
	(pt 936 592)
)
(connector
	(pt 936 592)
	(pt 952 592)
)
(connector
	(pt 952 608)
	(pt 736 608)
)
(connector
	(pt 952 624)
	(pt 936 624)
)
(connector
	(pt 952 656)
	(pt 936 656)
)
(connector
	(pt 952 640)
	(pt 736 640)
)
(connector
	(pt 728 576)
	(pt 736 576)
	(bus)
)
(connector
	(pt 736 576)
	(pt 952 576)
	(bus)
)
(connector
	(pt 784 520)
	(pt 952 520)
	(bus)
)
(connector
	(pt 800 440)
	(pt 952 440)
)
(connector
	(pt 952 824)
	(pt 936 824)
)
(connector
	(pt 952 760)
	(pt 936 760)
)
(connector
	(pt 952 744)
	(pt 752 744)
)
(connector
	(pt 952 728)
	(pt 936 728)
)
(connector
	(pt 952 712)
	(pt 744 712)
	(bus)
)
(connector
	(pt 952 792)
	(pt 936 792)
	(bus)
)
(connector
	(pt 680 808)
	(pt 952 808)
)
(connector
	(pt 680 776)
	(pt 952 776)
	(bus)
)
(connector
	(pt 928 696)
	(pt 936 696)
	(bus)
)
(connector
	(pt 936 696)
	(pt 952 696)
	(bus)
)
(connector
	(pt 1464 440)
	(pt 1496 440)
)
(connector
	(pt 1496 440)
	(pt 1504 440)
)
(junction (pt 936 592))
(junction (pt 736 576))
(junction (pt 936 696))
(junction (pt 1496 440))
(text "This is the top level for the HW tutorial" (rect 768 264 982 277)(font "Arial" (color 0 0 0)(font_size 8)))
(text "NiosII QuartusII Project" (rect 768 232 1059 260)(font "Arial" (color 0 0 0)(font_size 18)))
