Flow report for nios2_quartus2_project
Thu Sep 12 09:21:50 2019
Quartus II 32-bit Version 12.1 Build 243 01/31/2013 Service Pack 1 SJ Web Edition


---------------------
; Table of Contents ;
---------------------
  1. Legal Notice
  2. Flow Summary
  3. Flow Settings
  4. Flow Non-Default Global Settings
  5. Flow Elapsed Time
  6. Flow OS Summary
  7. Flow Log



----------------
; Legal Notice ;
----------------
Copyright (C) 1991-2012 Altera Corporation
Your use of Altera Corporation's design tools, logic functions 
and other software and tools, and its AMPP partner logic 
functions, and any output files from any of the foregoing 
(including device programming or simulation files), and any 
associated documentation or information are expressly subject 
to the terms and conditions of the Altera Program License 
Subscription Agreement, Altera MegaCore Function License 
Agreement, or other applicable license agreement, including, 
without limitation, that your use is for the sole purpose of 
programming logic devices manufactured by Altera and sold by 
Altera or its authorized distributors.  Please refer to the 
applicable agreement for further details.



+------------------------------------------------------------------------------------+
; Flow Summary                                                                       ;
+------------------------------------+-----------------------------------------------+
; Flow Status                        ; Successful - Thu Sep 12 09:21:41 2019         ;
; Quartus II 32-bit Version          ; 12.1 Build 243 01/31/2013 SP 1 SJ Web Edition ;
; Revision Name                      ; nios2_quartus2_project                        ;
; Top-level Entity Name              ; nios2_quartus2_project                        ;
; Family                             ; Cyclone II                                    ;
; Device                             ; EP2C20F484C7                                  ;
; Timing Models                      ; Final                                         ;
; Total logic elements               ; 3,443 / 18,752 ( 18 % )                       ;
;     Total combinational functions  ; 3,189 / 18,752 ( 17 % )                       ;
;     Dedicated logic registers      ; 2,026 / 18,752 ( 11 % )                       ;
; Total registers                    ; 2094                                          ;
; Total pins                         ; 86 / 315 ( 27 % )                             ;
; Total virtual pins                 ; 0                                             ;
; Total memory bits                  ; 192,896 / 239,616 ( 81 % )                    ;
; Embedded Multiplier 9-bit elements ; 0 / 52 ( 0 % )                                ;
; Total PLLs                         ; 1 / 4 ( 25 % )                                ;
+------------------------------------+-----------------------------------------------+


+--------------------------------------------+
; Flow Settings                              ;
+-------------------+------------------------+
; Option            ; Setting                ;
+-------------------+------------------------+
; Start date & time ; 09/12/2019 09:20:24    ;
; Main task         ; Compilation            ;
; Revision Name     ; nios2_quartus2_project ;
+-------------------+------------------------+


+---------------------------------------------------------------------------------------------------------------------------------------------------------------------------------+
; Flow Non-Default Global Settings                                                                                                                                                ;
+-------------------------------------+----------------------------------------------------------------------+---------------+---------------------------------------+------------+
; Assignment Name                     ; Value                                                                ; Default Value ; Entity Name                           ; Section Id ;
+-------------------------------------+----------------------------------------------------------------------+---------------+---------------------------------------+------------+
; COMPILER_SIGNATURE_ID               ; 40398546851573.156827642303365                                       ; --            ; --                                    ; --         ;
; IP_TOOL_ENV                         ; qsys                                                                 ; --            ; altera_avalon_sc_fifo                 ; --         ;
; IP_TOOL_ENV                         ; qsys                                                                 ; --            ; altera_merlin_burst_adapter           ; --         ;
; IP_TOOL_ENV                         ; qsys                                                                 ; --            ; altera_merlin_master_agent            ; --         ;
; IP_TOOL_ENV                         ; qsys                                                                 ; --            ; altera_merlin_master_translator       ; --         ;
; IP_TOOL_ENV                         ; qsys                                                                 ; --            ; altera_merlin_slave_agent             ; --         ;
; IP_TOOL_ENV                         ; qsys                                                                 ; --            ; altera_merlin_slave_translator        ; --         ;
; IP_TOOL_ENV                         ; qsys                                                                 ; --            ; altera_merlin_traffic_limiter         ; --         ;
; IP_TOOL_ENV                         ; qsys                                                                 ; --            ; altera_merlin_width_adapter           ; --         ;
; IP_TOOL_ENV                         ; qsys                                                                 ; --            ; altera_reset_controller               ; --         ;
; IP_TOOL_ENV                         ; qsys                                                                 ; --            ; first_nios2_system                    ; --         ;
; IP_TOOL_ENV                         ; qsys                                                                 ; --            ; first_nios2_system_addr_router        ; --         ;
; IP_TOOL_ENV                         ; qsys                                                                 ; --            ; first_nios2_system_addr_router_001    ; --         ;
; IP_TOOL_ENV                         ; qsys                                                                 ; --            ; first_nios2_system_cmd_xbar_demux     ; --         ;
; IP_TOOL_ENV                         ; qsys                                                                 ; --            ; first_nios2_system_cmd_xbar_demux_001 ; --         ;
; IP_TOOL_ENV                         ; qsys                                                                 ; --            ; first_nios2_system_cmd_xbar_mux       ; --         ;
; IP_TOOL_ENV                         ; qsys                                                                 ; --            ; first_nios2_system_cpu                ; --         ;
; IP_TOOL_ENV                         ; qsys                                                                 ; --            ; first_nios2_system_id_router          ; --         ;
; IP_TOOL_ENV                         ; qsys                                                                 ; --            ; first_nios2_system_id_router_002      ; --         ;
; IP_TOOL_ENV                         ; qsys                                                                 ; --            ; first_nios2_system_id_router_003      ; --         ;
; IP_TOOL_ENV                         ; qsys                                                                 ; --            ; first_nios2_system_id_router_008      ; --         ;
; IP_TOOL_ENV                         ; qsys                                                                 ; --            ; first_nios2_system_irq_mapper         ; --         ;
; IP_TOOL_ENV                         ; qsys                                                                 ; --            ; first_nios2_system_jtag_uart          ; --         ;
; IP_TOOL_ENV                         ; qsys                                                                 ; --            ; first_nios2_system_led_pio            ; --         ;
; IP_TOOL_ENV                         ; qsys                                                                 ; --            ; first_nios2_system_onchip_mem         ; --         ;
; IP_TOOL_ENV                         ; qsys                                                                 ; --            ; first_nios2_system_rsp_xbar_demux     ; --         ;
; IP_TOOL_ENV                         ; qsys                                                                 ; --            ; first_nios2_system_rsp_xbar_demux_003 ; --         ;
; IP_TOOL_ENV                         ; qsys                                                                 ; --            ; first_nios2_system_rsp_xbar_mux       ; --         ;
; IP_TOOL_ENV                         ; qsys                                                                 ; --            ; first_nios2_system_rsp_xbar_mux_001   ; --         ;
; IP_TOOL_ENV                         ; qsys                                                                 ; --            ; first_nios2_system_sdram              ; --         ;
; IP_TOOL_ENV                         ; qsys                                                                 ; --            ; first_nios2_system_snapshot           ; --         ;
; IP_TOOL_ENV                         ; qsys                                                                 ; --            ; first_nios2_system_sys_clk_timer      ; --         ;
; IP_TOOL_ENV                         ; qsys                                                                 ; --            ; first_nios2_system_sysid              ; --         ;
; IP_TOOL_NAME                        ; altera_avalon_sc_fifo                                                ; --            ; altera_avalon_sc_fifo                 ; --         ;
; IP_TOOL_NAME                        ; altera_merlin_burst_adapter                                          ; --            ; altera_merlin_burst_adapter           ; --         ;
; IP_TOOL_NAME                        ; altera_merlin_master_agent                                           ; --            ; altera_merlin_master_agent            ; --         ;
; IP_TOOL_NAME                        ; altera_merlin_master_translator                                      ; --            ; altera_merlin_master_translator       ; --         ;
; IP_TOOL_NAME                        ; altera_merlin_slave_agent                                            ; --            ; altera_merlin_slave_agent             ; --         ;
; IP_TOOL_NAME                        ; altera_merlin_slave_translator                                       ; --            ; altera_merlin_slave_translator        ; --         ;
; IP_TOOL_NAME                        ; altera_merlin_traffic_limiter                                        ; --            ; altera_merlin_traffic_limiter         ; --         ;
; IP_TOOL_NAME                        ; altera_merlin_width_adapter                                          ; --            ; altera_merlin_width_adapter           ; --         ;
; IP_TOOL_NAME                        ; altera_reset_controller                                              ; --            ; altera_reset_controller               ; --         ;
; IP_TOOL_NAME                        ; qsys                                                                 ; --            ; first_nios2_system                    ; --         ;
; IP_TOOL_NAME                        ; altera_merlin_router                                                 ; --            ; first_nios2_system_addr_router        ; --         ;
; IP_TOOL_NAME                        ; altera_merlin_router                                                 ; --            ; first_nios2_system_addr_router_001    ; --         ;
; IP_TOOL_NAME                        ; altera_merlin_demultiplexer                                          ; --            ; first_nios2_system_cmd_xbar_demux     ; --         ;
; IP_TOOL_NAME                        ; altera_merlin_demultiplexer                                          ; --            ; first_nios2_system_cmd_xbar_demux_001 ; --         ;
; IP_TOOL_NAME                        ; altera_merlin_multiplexer                                            ; --            ; first_nios2_system_cmd_xbar_mux       ; --         ;
; IP_TOOL_NAME                        ; altera_nios2_qsys                                                    ; --            ; first_nios2_system_cpu                ; --         ;
; IP_TOOL_NAME                        ; altera_merlin_router                                                 ; --            ; first_nios2_system_id_router          ; --         ;
; IP_TOOL_NAME                        ; altera_merlin_router                                                 ; --            ; first_nios2_system_id_router_002      ; --         ;
; IP_TOOL_NAME                        ; altera_merlin_router                                                 ; --            ; first_nios2_system_id_router_003      ; --         ;
; IP_TOOL_NAME                        ; altera_merlin_router                                                 ; --            ; first_nios2_system_id_router_008      ; --         ;
; IP_TOOL_NAME                        ; altera_irq_mapper                                                    ; --            ; first_nios2_system_irq_mapper         ; --         ;
; IP_TOOL_NAME                        ; altera_avalon_jtag_uart                                              ; --            ; first_nios2_system_jtag_uart          ; --         ;
; IP_TOOL_NAME                        ; altera_avalon_pio                                                    ; --            ; first_nios2_system_led_pio            ; --         ;
; IP_TOOL_NAME                        ; altera_avalon_onchip_memory2                                         ; --            ; first_nios2_system_onchip_mem         ; --         ;
; IP_TOOL_NAME                        ; altera_merlin_demultiplexer                                          ; --            ; first_nios2_system_rsp_xbar_demux     ; --         ;
; IP_TOOL_NAME                        ; altera_merlin_demultiplexer                                          ; --            ; first_nios2_system_rsp_xbar_demux_003 ; --         ;
; IP_TOOL_NAME                        ; altera_merlin_multiplexer                                            ; --            ; first_nios2_system_rsp_xbar_mux       ; --         ;
; IP_TOOL_NAME                        ; altera_merlin_multiplexer                                            ; --            ; first_nios2_system_rsp_xbar_mux_001   ; --         ;
; IP_TOOL_NAME                        ; altera_avalon_new_sdram_controller                                   ; --            ; first_nios2_system_sdram              ; --         ;
; IP_TOOL_NAME                        ; altera_avalon_timer                                                  ; --            ; first_nios2_system_snapshot           ; --         ;
; IP_TOOL_NAME                        ; altera_avalon_timer                                                  ; --            ; first_nios2_system_sys_clk_timer      ; --         ;
; IP_TOOL_NAME                        ; altera_avalon_sysid_qsys                                             ; --            ; first_nios2_system_sysid              ; --         ;
; IP_TOOL_VERSION                     ; 12.1                                                                 ; --            ; altera_avalon_sc_fifo                 ; --         ;
; IP_TOOL_VERSION                     ; 12.1                                                                 ; --            ; altera_merlin_burst_adapter           ; --         ;
; IP_TOOL_VERSION                     ; 12.1                                                                 ; --            ; altera_merlin_master_agent            ; --         ;
; IP_TOOL_VERSION                     ; 12.1                                                                 ; --            ; altera_merlin_master_translator       ; --         ;
; IP_TOOL_VERSION                     ; 12.1                                                                 ; --            ; altera_merlin_slave_agent             ; --         ;
; IP_TOOL_VERSION                     ; 12.1                                                                 ; --            ; altera_merlin_slave_translator        ; --         ;
; IP_TOOL_VERSION                     ; 12.1                                                                 ; --            ; altera_merlin_traffic_limiter         ; --         ;
; IP_TOOL_VERSION                     ; 12.1                                                                 ; --            ; altera_merlin_width_adapter           ; --         ;
; IP_TOOL_VERSION                     ; 12.1                                                                 ; --            ; altera_reset_controller               ; --         ;
; IP_TOOL_VERSION                     ; 12.1sp1                                                              ; --            ; first_nios2_system                    ; --         ;
; IP_TOOL_VERSION                     ; 12.1                                                                 ; --            ; first_nios2_system_addr_router        ; --         ;
; IP_TOOL_VERSION                     ; 12.1                                                                 ; --            ; first_nios2_system_addr_router_001    ; --         ;
; IP_TOOL_VERSION                     ; 12.1                                                                 ; --            ; first_nios2_system_cmd_xbar_demux     ; --         ;
; IP_TOOL_VERSION                     ; 12.1                                                                 ; --            ; first_nios2_system_cmd_xbar_demux_001 ; --         ;
; IP_TOOL_VERSION                     ; 12.1                                                                 ; --            ; first_nios2_system_cmd_xbar_mux       ; --         ;
; IP_TOOL_VERSION                     ; 12.1                                                                 ; --            ; first_nios2_system_cpu                ; --         ;
; IP_TOOL_VERSION                     ; 12.1                                                                 ; --            ; first_nios2_system_id_router          ; --         ;
; IP_TOOL_VERSION                     ; 12.1                                                                 ; --            ; first_nios2_system_id_router_002      ; --         ;
; IP_TOOL_VERSION                     ; 12.1                                                                 ; --            ; first_nios2_system_id_router_003      ; --         ;
; IP_TOOL_VERSION                     ; 12.1                                                                 ; --            ; first_nios2_system_id_router_008      ; --         ;
; IP_TOOL_VERSION                     ; 12.1                                                                 ; --            ; first_nios2_system_irq_mapper         ; --         ;
; IP_TOOL_VERSION                     ; 12.1                                                                 ; --            ; first_nios2_system_jtag_uart          ; --         ;
; IP_TOOL_VERSION                     ; 12.1                                                                 ; --            ; first_nios2_system_led_pio            ; --         ;
; IP_TOOL_VERSION                     ; 12.1                                                                 ; --            ; first_nios2_system_onchip_mem         ; --         ;
; IP_TOOL_VERSION                     ; 12.1                                                                 ; --            ; first_nios2_system_rsp_xbar_demux     ; --         ;
; IP_TOOL_VERSION                     ; 12.1                                                                 ; --            ; first_nios2_system_rsp_xbar_demux_003 ; --         ;
; IP_TOOL_VERSION                     ; 12.1                                                                 ; --            ; first_nios2_system_rsp_xbar_mux       ; --         ;
; IP_TOOL_VERSION                     ; 12.1                                                                 ; --            ; first_nios2_system_rsp_xbar_mux_001   ; --         ;
; IP_TOOL_VERSION                     ; 12.1                                                                 ; --            ; first_nios2_system_sdram              ; --         ;
; IP_TOOL_VERSION                     ; 12.1                                                                 ; --            ; first_nios2_system_snapshot           ; --         ;
; IP_TOOL_VERSION                     ; 12.1                                                                 ; --            ; first_nios2_system_sys_clk_timer      ; --         ;
; IP_TOOL_VERSION                     ; 12.1                                                                 ; --            ; first_nios2_system_sysid              ; --         ;
; MAX_CORE_JUNCTION_TEMP              ; 85                                                                   ; --            ; --                                    ; --         ;
; MIN_CORE_JUNCTION_TEMP              ; 0                                                                    ; --            ; --                                    ; --         ;
; MISC_FILE                           ; first_nios2_system/synthesis/../../first_nios2_system.cmp            ; --            ; --                                    ; --         ;
; MISC_FILE                           ; first_nios2_system/synthesis/../../first_nios2_system.qsys           ; --            ; --                                    ; --         ;
; PARTITION_COLOR                     ; 2147039                                                              ; --            ; --                                    ; Top        ;
; PARTITION_FITTER_PRESERVATION_LEVEL ; PLACEMENT_AND_ROUTING                                                ; --            ; --                                    ; Top        ;
; PARTITION_NETLIST_TYPE              ; SOURCE                                                               ; --            ; --                                    ; Top        ;
; SLD_INFO                            ; QSYS_NAME first_nios2_system HAS_SOPCINFO 1 GENERATION_ID 1568276374 ; --            ; first_nios2_system                    ; --         ;
; SMART_RECOMPILE                     ; On                                                                   ; Off           ; --                                    ; --         ;
; SOPCINFO_FILE                       ; first_nios2_system/synthesis/../../first_nios2_system.sopcinfo       ; --            ; --                                    ; --         ;
; SYNTHESIS_ONLY_QIP                  ; On                                                                   ; --            ; --                                    ; --         ;
+-------------------------------------+----------------------------------------------------------------------+---------------+---------------------------------------+------------+


+-------------------------------------------------------------------------------------------------------------------------------+
; Flow Elapsed Time                                                                                                             ;
+---------------------------+--------------+-------------------------+---------------------+------------------------------------+
; Module Name               ; Elapsed Time ; Average Processors Used ; Peak Virtual Memory ; Total CPU Time (on all processors) ;
+---------------------------+--------------+-------------------------+---------------------+------------------------------------+
; Analysis & Synthesis      ; 00:00:30     ; 1.0                     ; 421 MB              ; 00:00:24                           ;
; Fitter                    ; 00:00:30     ; 2.5                     ; 499 MB              ; 00:00:33                           ;
; Assembler                 ; 00:00:03     ; 1.0                     ; 344 MB              ; 00:00:02                           ;
; TimeQuest Timing Analyzer ; 00:00:04     ; 1.0                     ; 369 MB              ; 00:00:03                           ;
; Total                     ; 00:01:07     ; --                      ; --                  ; 00:01:02                           ;
+---------------------------+--------------+-------------------------+---------------------+------------------------------------+


+---------------------------------------------------------------------------------------------+
; Flow OS Summary                                                                             ;
+---------------------------+------------------+----------------+------------+----------------+
; Module Name               ; Machine Hostname ; OS Name        ; OS Version ; Processor type ;
+---------------------------+------------------+----------------+------------+----------------+
; Analysis & Synthesis      ; b17              ; Ubuntu 14.04.5 ; 14         ; i686           ;
; Fitter                    ; b17              ; Ubuntu 14.04.5 ; 14         ; i686           ;
; Assembler                 ; b17              ; Ubuntu 14.04.5 ; 14         ; i686           ;
; TimeQuest Timing Analyzer ; b17              ; Ubuntu 14.04.5 ; 14         ; i686           ;
+---------------------------+------------------+----------------+------------+----------------+


------------
; Flow Log ;
------------
quartus_map --read_settings_files=on --write_settings_files=off nios2_quartus2_project -c nios2_quartus2_project
quartus_fit --read_settings_files=off --write_settings_files=off nios2_quartus2_project -c nios2_quartus2_project
quartus_asm --read_settings_files=off --write_settings_files=off nios2_quartus2_project -c nios2_quartus2_project
quartus_sta nios2_quartus2_project -c nios2_quartus2_project



